wind_speed,power_factor
0,0
0.5,0
1,0
2,0.29
3,0.4
4,0.42
5,0.44
6,0.45
7,0.45
8,0.44
9,0.41
10,0.36
11,0.31
12,0.25
13,0.2
14,0.16
15,0.13
16,0.11
17,0.09
18,0.08
19,0.06
20,0.05
21,0.05
22,0.04
23,0.04
24,0.03
25,0.03
